%YAML 1.1
%TAG !u! tag:unity3d.com,2011:
--- !u!114 &11400000
MonoBehaviour:
  m_ObjectHideFlags: 0
  m_CorrespondingSourceObject: {fileID: 0}
  m_PrefabInstance: {fileID: 0}
  m_PrefabAsset: {fileID: 0}
  m_GameObject: {fileID: 0}
  m_Enabled: 1
  m_EditorHideFlags: 0
  m_Script: {fileID: 11500000, guid: 25ccb6ae329e463438cd60f2e2c07c2e, type: 3}
  m_Name: tree
  m_EditorClassIdentifier: 
  _name: tree
  _id: tree
  _labelText: Tree
  _icon: {fileID: 0}
  _iconScale: {x: 1, y: 1, z: 1}
