%YAML 1.1
%TAG !u! tag:unity3d.com,2011:
--- !u!114 &11400000
MonoBehaviour:
  m_ObjectHideFlags: 0
  m_CorrespondingSourceObject: {fileID: 0}
  m_PrefabInstance: {fileID: 0}
  m_PrefabAsset: {fileID: 0}
  m_GameObject: {fileID: 0}
  m_Enabled: 1
  m_EditorHideFlags: 0
  m_Script: {fileID: 11500000, guid: 11acfb73fba0eaa43ad55b40786f6957, type: 3}
  m_Name: IntroCutscene
  m_EditorClassIdentifier: 
  _clips:
  - {fileID: 0}
  - {fileID: 0}
  - {fileID: 0}
